{
	"info": {
		"_postman_id": "99701cdd-f757-4225-8cd7-54e830d2ec13",
		"name": "Telconet",
		"schema": "https://schema.getpostman.com/json/collection/v2.1.0/collection.json",
		"_exporter_id": "14418160"
	},
	"item": [
		{
			"name": "Category",
			"item": [
				{
					"name": "Guardar",
					"request": {
						"method": "POST",
						"header": [],
						"body": {
							"mode": "raw",
							"raw": "{\n    \"name\": \"zapatos\",\n\t\"description\" :\"uso diaro\"\n}",
							"options": {
								"raw": {
									"language": "json"
								}
							}
						},
						"url": {
							"raw": "localhost:8080/category/save",
							"host": [
								"localhost"
							],
							"port": "8080",
							"path": [
								"category",
								"save"
							]
						}
					},
					"response": [
						{
							"name": "200 OK",
							"originalRequest": {
								"method": "POST",
								"header": [],
								"body": {
									"mode": "raw",
									"raw": "{\n    \"name\": \"zapatos\",\n\t\"description\" :\"uso diaro\"\n}",
									"options": {
										"raw": {
											"language": "json"
										}
									}
								},
								"url": {
									"raw": "localhost:8080/category/save",
									"host": [
										"localhost"
									],
									"port": "8080",
									"path": [
										"category",
										"save"
									]
								}
							},
							"status": "OK",
							"code": 200,
							"_postman_previewlanguage": "json",
							"header": [
								{
									"key": "Content-Type",
									"value": "application/json"
								},
								{
									"key": "Transfer-Encoding",
									"value": "chunked"
								},
								{
									"key": "Date",
									"value": "Fri, 30 Dec 2022 20:46:11 GMT"
								},
								{
									"key": "Keep-Alive",
									"value": "timeout=60"
								},
								{
									"key": "Connection",
									"value": "keep-alive"
								}
							],
							"cookie": [],
							"body": "{\n    \"id\": 1,\n    \"name\": \"zapatos\",\n    \"description\": \"uso diaro\"\n}"
						}
					]
				},
				{
					"name": "Editar",
					"request": {
						"method": "PUT",
						"header": [],
						"body": {
							"mode": "raw",
							"raw": "{\n    \"id\":1, \n    \"name\": \"zapatos\",\n\t\"description\" :\"uso\"\n}",
							"options": {
								"raw": {
									"language": "json"
								}
							}
						},
						"url": {
							"raw": "localhost:8080/category/edit",
							"host": [
								"localhost"
							],
							"port": "8080",
							"path": [
								"category",
								"edit"
							]
						}
					},
					"response": [
						{
							"name": "200 OK",
							"originalRequest": {
								"method": "POST",
								"header": [],
								"body": {
									"mode": "raw",
									"raw": "{\n    \"name\": \"zapatos\",\n\t\"description\" :\"uso diaro\"\n}",
									"options": {
										"raw": {
											"language": "json"
										}
									}
								},
								"url": {
									"raw": "localhost:8080/category/save",
									"host": [
										"localhost"
									],
									"port": "8080",
									"path": [
										"category",
										"save"
									]
								}
							},
							"status": "OK",
							"code": 200,
							"_postman_previewlanguage": "json",
							"header": [
								{
									"key": "Content-Type",
									"value": "application/json"
								},
								{
									"key": "Transfer-Encoding",
									"value": "chunked"
								},
								{
									"key": "Date",
									"value": "Fri, 30 Dec 2022 20:46:11 GMT"
								},
								{
									"key": "Keep-Alive",
									"value": "timeout=60"
								},
								{
									"key": "Connection",
									"value": "keep-alive"
								}
							],
							"cookie": [],
							"body": "{\n    \"id\": 1,\n    \"name\": \"zapatos\",\n    \"description\": \"uso diaro\"\n}"
						},
						{
							"name": "200 OK",
							"originalRequest": {
								"method": "PUT",
								"header": [],
								"body": {
									"mode": "raw",
									"raw": "{\n    \"id\":1, \n    \"name\": \"zapatos\",\n\t\"description\" :\"uso\"\n}",
									"options": {
										"raw": {
											"language": "json"
										}
									}
								},
								"url": {
									"raw": "localhost:8080/category/edit",
									"host": [
										"localhost"
									],
									"port": "8080",
									"path": [
										"category",
										"edit"
									]
								}
							},
							"status": "OK",
							"code": 200,
							"_postman_previewlanguage": "json",
							"header": [
								{
									"key": "Content-Type",
									"value": "application/json"
								},
								{
									"key": "Transfer-Encoding",
									"value": "chunked"
								},
								{
									"key": "Date",
									"value": "Fri, 30 Dec 2022 20:47:26 GMT"
								},
								{
									"key": "Keep-Alive",
									"value": "timeout=60"
								},
								{
									"key": "Connection",
									"value": "keep-alive"
								}
							],
							"cookie": [],
							"body": "{\n    \"id\": 1,\n    \"name\": \"zapatos\",\n    \"description\": \"uso\"\n}"
						}
					]
				},
				{
					"name": "Listar",
					"protocolProfileBehavior": {
						"disableBodyPruning": true
					},
					"request": {
						"method": "GET",
						"header": [],
						"body": {
							"mode": "raw",
							"raw": "",
							"options": {
								"raw": {
									"language": "json"
								}
							}
						},
						"url": {
							"raw": "localhost:8080/category/listar",
							"host": [
								"localhost"
							],
							"port": "8080",
							"path": [
								"category",
								"listar"
							]
						}
					},
					"response": [
						{
							"name": "200 OK",
							"originalRequest": {
								"method": "POST",
								"header": [],
								"body": {
									"mode": "raw",
									"raw": "{\n    \"name\": \"zapatos\",\n\t\"description\" :\"uso diaro\"\n}",
									"options": {
										"raw": {
											"language": "json"
										}
									}
								},
								"url": {
									"raw": "localhost:8080/category/save",
									"host": [
										"localhost"
									],
									"port": "8080",
									"path": [
										"category",
										"save"
									]
								}
							},
							"status": "OK",
							"code": 200,
							"_postman_previewlanguage": "json",
							"header": [
								{
									"key": "Content-Type",
									"value": "application/json"
								},
								{
									"key": "Transfer-Encoding",
									"value": "chunked"
								},
								{
									"key": "Date",
									"value": "Fri, 30 Dec 2022 20:46:11 GMT"
								},
								{
									"key": "Keep-Alive",
									"value": "timeout=60"
								},
								{
									"key": "Connection",
									"value": "keep-alive"
								}
							],
							"cookie": [],
							"body": "{\n    \"id\": 1,\n    \"name\": \"zapatos\",\n    \"description\": \"uso diaro\"\n}"
						},
						{
							"name": "200 OK",
							"originalRequest": {
								"method": "PUT",
								"header": [],
								"body": {
									"mode": "raw",
									"raw": "{\n    \"id\":1, \n    \"name\": \"zapatos\",\n\t\"description\" :\"uso\"\n}",
									"options": {
										"raw": {
											"language": "json"
										}
									}
								},
								"url": {
									"raw": "localhost:8080/category/edit",
									"host": [
										"localhost"
									],
									"port": "8080",
									"path": [
										"category",
										"edit"
									]
								}
							},
							"status": "OK",
							"code": 200,
							"_postman_previewlanguage": "json",
							"header": [
								{
									"key": "Content-Type",
									"value": "application/json"
								},
								{
									"key": "Transfer-Encoding",
									"value": "chunked"
								},
								{
									"key": "Date",
									"value": "Fri, 30 Dec 2022 20:47:26 GMT"
								},
								{
									"key": "Keep-Alive",
									"value": "timeout=60"
								},
								{
									"key": "Connection",
									"value": "keep-alive"
								}
							],
							"cookie": [],
							"body": "{\n    \"id\": 1,\n    \"name\": \"zapatos\",\n    \"description\": \"uso\"\n}"
						},
						{
							"name": "200 OK",
							"originalRequest": {
								"method": "GET",
								"header": [],
								"body": {
									"mode": "raw",
									"raw": "",
									"options": {
										"raw": {
											"language": "json"
										}
									}
								},
								"url": {
									"raw": "localhost:8080/category/listar",
									"host": [
										"localhost"
									],
									"port": "8080",
									"path": [
										"category",
										"listar"
									]
								}
							},
							"status": "OK",
							"code": 200,
							"_postman_previewlanguage": "json",
							"header": [
								{
									"key": "Content-Type",
									"value": "application/json"
								},
								{
									"key": "Transfer-Encoding",
									"value": "chunked"
								},
								{
									"key": "Date",
									"value": "Fri, 30 Dec 2022 20:48:12 GMT"
								},
								{
									"key": "Keep-Alive",
									"value": "timeout=60"
								},
								{
									"key": "Connection",
									"value": "keep-alive"
								}
							],
							"cookie": [],
							"body": "[\n    {\n        \"id\": 1,\n        \"name\": \"zapatos\",\n        \"description\": \"uso\"\n    }\n]"
						}
					]
				},
				{
					"name": "Listar por id",
					"protocolProfileBehavior": {
						"disableBodyPruning": true
					},
					"request": {
						"method": "GET",
						"header": [],
						"body": {
							"mode": "raw",
							"raw": "",
							"options": {
								"raw": {
									"language": "json"
								}
							}
						},
						"url": {
							"raw": "localhost:8080/category/listarId/1",
							"host": [
								"localhost"
							],
							"port": "8080",
							"path": [
								"category",
								"listarId",
								"1"
							]
						}
					},
					"response": [
						{
							"name": "200 OK",
							"originalRequest": {
								"method": "POST",
								"header": [],
								"body": {
									"mode": "raw",
									"raw": "{\n    \"name\": \"zapatos\",\n\t\"description\" :\"uso diaro\"\n}",
									"options": {
										"raw": {
											"language": "json"
										}
									}
								},
								"url": {
									"raw": "localhost:8080/category/save",
									"host": [
										"localhost"
									],
									"port": "8080",
									"path": [
										"category",
										"save"
									]
								}
							},
							"status": "OK",
							"code": 200,
							"_postman_previewlanguage": "json",
							"header": [
								{
									"key": "Content-Type",
									"value": "application/json"
								},
								{
									"key": "Transfer-Encoding",
									"value": "chunked"
								},
								{
									"key": "Date",
									"value": "Fri, 30 Dec 2022 20:46:11 GMT"
								},
								{
									"key": "Keep-Alive",
									"value": "timeout=60"
								},
								{
									"key": "Connection",
									"value": "keep-alive"
								}
							],
							"cookie": [],
							"body": "{\n    \"id\": 1,\n    \"name\": \"zapatos\",\n    \"description\": \"uso diaro\"\n}"
						},
						{
							"name": "200 OK",
							"originalRequest": {
								"method": "PUT",
								"header": [],
								"body": {
									"mode": "raw",
									"raw": "{\n    \"id\":1, \n    \"name\": \"zapatos\",\n\t\"description\" :\"uso\"\n}",
									"options": {
										"raw": {
											"language": "json"
										}
									}
								},
								"url": {
									"raw": "localhost:8080/category/edit",
									"host": [
										"localhost"
									],
									"port": "8080",
									"path": [
										"category",
										"edit"
									]
								}
							},
							"status": "OK",
							"code": 200,
							"_postman_previewlanguage": "json",
							"header": [
								{
									"key": "Content-Type",
									"value": "application/json"
								},
								{
									"key": "Transfer-Encoding",
									"value": "chunked"
								},
								{
									"key": "Date",
									"value": "Fri, 30 Dec 2022 20:47:26 GMT"
								},
								{
									"key": "Keep-Alive",
									"value": "timeout=60"
								},
								{
									"key": "Connection",
									"value": "keep-alive"
								}
							],
							"cookie": [],
							"body": "{\n    \"id\": 1,\n    \"name\": \"zapatos\",\n    \"description\": \"uso\"\n}"
						},
						{
							"name": "200 OK",
							"originalRequest": {
								"method": "GET",
								"header": [],
								"body": {
									"mode": "raw",
									"raw": "",
									"options": {
										"raw": {
											"language": "json"
										}
									}
								},
								"url": {
									"raw": "localhost:8080/category/listar",
									"host": [
										"localhost"
									],
									"port": "8080",
									"path": [
										"category",
										"listar"
									]
								}
							},
							"status": "OK",
							"code": 200,
							"_postman_previewlanguage": "json",
							"header": [
								{
									"key": "Content-Type",
									"value": "application/json"
								},
								{
									"key": "Transfer-Encoding",
									"value": "chunked"
								},
								{
									"key": "Date",
									"value": "Fri, 30 Dec 2022 20:48:12 GMT"
								},
								{
									"key": "Keep-Alive",
									"value": "timeout=60"
								},
								{
									"key": "Connection",
									"value": "keep-alive"
								}
							],
							"cookie": [],
							"body": "[\n    {\n        \"id\": 1,\n        \"name\": \"zapatos\",\n        \"description\": \"uso\"\n    }\n]"
						},
						{
							"name": "200 OK",
							"originalRequest": {
								"method": "GET",
								"header": [],
								"body": {
									"mode": "raw",
									"raw": "",
									"options": {
										"raw": {
											"language": "json"
										}
									}
								},
								"url": {
									"raw": "localhost:8080/category/listarId/1",
									"host": [
										"localhost"
									],
									"port": "8080",
									"path": [
										"category",
										"listarId",
										"1"
									]
								}
							},
							"status": "OK",
							"code": 200,
							"_postman_previewlanguage": "json",
							"header": [
								{
									"key": "Content-Type",
									"value": "application/json"
								},
								{
									"key": "Transfer-Encoding",
									"value": "chunked"
								},
								{
									"key": "Date",
									"value": "Fri, 30 Dec 2022 20:48:47 GMT"
								},
								{
									"key": "Keep-Alive",
									"value": "timeout=60"
								},
								{
									"key": "Connection",
									"value": "keep-alive"
								}
							],
							"cookie": [],
							"body": "{\n    \"id\": 1,\n    \"name\": \"zapatos\",\n    \"description\": \"uso\"\n}"
						}
					]
				}
			]
		},
		{
			"name": "Product",
			"item": [
				{
					"name": "Carga masiva",
					"request": {
						"method": "GET",
						"header": [],
						"url": {
							"raw": "localhots:8080/product/cargaMasiva",
							"host": [
								"localhots"
							],
							"port": "8080",
							"path": [
								"product",
								"cargaMasiva"
							]
						}
					},
					"response": []
				},
				{
					"name": "Delete",
					"request": {
						"method": "DELETE",
						"header": [],
						"url": {
							"raw": "localhost:8080/product/delete/29",
							"host": [
								"localhost"
							],
							"port": "8080",
							"path": [
								"product",
								"delete",
								"29"
							]
						}
					},
					"response": [
						{
							"name": "Delete 400",
							"originalRequest": {
								"method": "DELETE",
								"header": [],
								"url": {
									"raw": "localhost:8080/product/delete/29",
									"host": [
										"localhost"
									],
									"port": "8080",
									"path": [
										"product",
										"delete",
										"29"
									]
								}
							},
							"status": "Bad Request",
							"code": 400,
							"_postman_previewlanguage": "plain",
							"header": [
								{
									"key": "Content-Type",
									"value": "text/plain;charset=UTF-8"
								},
								{
									"key": "Content-Length",
									"value": "37"
								},
								{
									"key": "Date",
									"value": "Fri, 30 Dec 2022 20:18:46 GMT"
								},
								{
									"key": "Connection",
									"value": "close"
								}
							],
							"cookie": [],
							"body": "El producto ya se encuentra eliminado"
						},
						{
							"name": "Delete 200",
							"originalRequest": {
								"method": "DELETE",
								"header": [],
								"url": {
									"raw": "localhost:8080/product/delete/29",
									"host": [
										"localhost"
									],
									"port": "8080",
									"path": [
										"product",
										"delete",
										"29"
									]
								}
							},
							"status": "OK",
							"code": 200,
							"_postman_previewlanguage": "plain",
							"header": [
								{
									"key": "Content-Type",
									"value": "text/plain;charset=UTF-8"
								},
								{
									"key": "Content-Length",
									"value": "18"
								},
								{
									"key": "Date",
									"value": "Fri, 30 Dec 2022 20:19:56 GMT"
								},
								{
									"key": "Keep-Alive",
									"value": "timeout=60"
								},
								{
									"key": "Connection",
									"value": "keep-alive"
								}
							],
							"cookie": [],
							"body": "Producto Eliminado"
						}
					]
				},
				{
					"name": "Editar",
					"request": {
						"method": "POST",
						"header": [],
						"body": {
							"mode": "raw",
							"raw": "{\n    \"id\": 1,\n    \"title\": \"Mens\",\n    \"price\": 22.3,\n    \"description\": \"Slim-fitting style, contrast raglan long sleeve, three-button henley placket, light weight & soft fabric for breathable and comfortable wearing. And Solid stitched shirts with round neck made for durability and a great fit for casual fashion wear and diehard baseball fans. The Henley style round neckline includes a three-button placket.\",\n    \"category\": \"men's clothing\",\n    \"imagen\": null\n}",
							"options": {
								"raw": {
									"language": "json"
								}
							}
						},
						"url": {
							"raw": "localhost:8080/product/edit",
							"host": [
								"localhost"
							],
							"port": "8080",
							"path": [
								"product",
								"edit"
							]
						}
					},
					"response": [
						{
							"name": "Editar 200",
							"originalRequest": {
								"method": "POST",
								"header": [],
								"body": {
									"mode": "raw",
									"raw": "{\n    \"id\": 30,\n    \"title\": \"Mens\",\n    \"price\": 22.3,\n    \"description\": \"Slim-fitting style, contrast raglan long sleeve, three-button henley placket, light weight & soft fabric for breathable and comfortable wearing. And Solid stitched shirts with round neck made for durability and a great fit for casual fashion wear and diehard baseball fans. The Henley style round neckline includes a three-button placket.\",\n    \"category\": \"men's clothing\",\n    \"imagen\": null\n}",
									"options": {
										"raw": {
											"language": "json"
										}
									}
								},
								"url": {
									"raw": "localhost:8080/product/edit",
									"host": [
										"localhost"
									],
									"port": "8080",
									"path": [
										"product",
										"edit"
									]
								}
							},
							"status": "OK",
							"code": 200,
							"_postman_previewlanguage": "json",
							"header": [
								{
									"key": "Content-Type",
									"value": "application/json"
								},
								{
									"key": "Transfer-Encoding",
									"value": "chunked"
								},
								{
									"key": "Date",
									"value": "Fri, 30 Dec 2022 20:23:41 GMT"
								},
								{
									"key": "Keep-Alive",
									"value": "timeout=60"
								},
								{
									"key": "Connection",
									"value": "keep-alive"
								}
							],
							"cookie": [],
							"body": "{\n    \"id\": 30,\n    \"title\": \"Mens\",\n    \"price\": 22.3,\n    \"description\": \"Slim-fitting style, contrast raglan long sleeve, three-button henley placket, light weight & soft fabric for breathable and comfortable wearing. And Solid stitched shirts with round neck made for durability and a great fit for casual fashion wear and diehard baseball fans. The Henley style round neckline includes a three-button placket.\",\n    \"category\": \"men's clothing\",\n    \"imagen\": null\n}"
						}
					]
				},
				{
					"name": "Editar imagen",
					"request": {
						"method": "PUT",
						"header": [],
						"url": {
							"raw": "localhost:8080/product/editImage?id=31&image=dsgadfgsdghbd",
							"host": [
								"localhost"
							],
							"port": "8080",
							"path": [
								"product",
								"editImage"
							],
							"query": [
								{
									"key": "id",
									"value": "31"
								},
								{
									"key": "image",
									"value": "dsgadfgsdghbd"
								}
							]
						}
					},
					"response": [
						{
							"name": "Editar imagen 200",
							"originalRequest": {
								"method": "PUT",
								"header": [],
								"url": {
									"raw": "localhost:8080/product/editImage?id=31&image=dsgadfgsdghbd",
									"host": [
										"localhost"
									],
									"port": "8080",
									"path": [
										"product",
										"editImage"
									],
									"query": [
										{
											"key": "id",
											"value": "31"
										},
										{
											"key": "image",
											"value": "dsgadfgsdghbd"
										}
									]
								}
							},
							"status": "OK",
							"code": 200,
							"_postman_previewlanguage": "json",
							"header": [
								{
									"key": "Content-Type",
									"value": "application/json"
								},
								{
									"key": "Transfer-Encoding",
									"value": "chunked"
								},
								{
									"key": "Date",
									"value": "Fri, 30 Dec 2022 20:26:02 GMT"
								},
								{
									"key": "Keep-Alive",
									"value": "timeout=60"
								},
								{
									"key": "Connection",
									"value": "keep-alive"
								}
							],
							"cookie": [],
							"body": "{\n    \"id\": 31,\n    \"title\": \"Mens Cotton Jacket\",\n    \"price\": 55.99,\n    \"description\": \"great outerwear jackets for Spring/Autumn/Winter, suitable for many occasions, such as working, hiking, camping, mountain/rock climbing, cycling, traveling or other outdoors. Good gift choice for you or your family member. A warm hearted love to Father, husband or son in this thanksgiving or Christmas Day.\",\n    \"category\": \"men's clothing\",\n    \"imagen\": \"dsgadfgsdghbd\"\n}"
						}
					]
				},
				{
					"name": "Buscar productos",
					"request": {
						"method": "GET",
						"header": [],
						"url": {
							"raw": "localhost:8080/product/findProduct/30",
							"host": [
								"localhost"
							],
							"port": "8080",
							"path": [
								"product",
								"findProduct",
								"30"
							]
						}
					},
					"response": [
						{
							"name": "200 OK",
							"originalRequest": {
								"method": "GET",
								"header": [],
								"url": {
									"raw": "localhost:8080/product/findProduct/30",
									"host": [
										"localhost"
									],
									"port": "8080",
									"path": [
										"product",
										"findProduct",
										"30"
									]
								}
							},
							"status": "OK",
							"code": 200,
							"_postman_previewlanguage": "json",
							"header": [
								{
									"key": "Content-Type",
									"value": "application/json"
								},
								{
									"key": "Transfer-Encoding",
									"value": "chunked"
								},
								{
									"key": "Date",
									"value": "Fri, 30 Dec 2022 20:20:19 GMT"
								},
								{
									"key": "Keep-Alive",
									"value": "timeout=60"
								},
								{
									"key": "Connection",
									"value": "keep-alive"
								}
							],
							"cookie": [],
							"body": "{\n    \"id\": 30,\n    \"title\": \"Mens Casual Premium Slim Fit T-Shirts \",\n    \"price\": 22.3,\n    \"description\": \"Slim-fitting style, contrast raglan long sleeve, three-button henley placket, light weight & soft fabric for breathable and comfortable wearing. And Solid stitched shirts with round neck made for durability and a great fit for casual fashion wear and diehard baseball fans. The Henley style round neckline includes a three-button placket.\",\n    \"category\": \"men's clothing\",\n    \"imagen\": null\n}"
						}
					]
				}
			]
		},
		{
			"name": "User",
			"item": [
				{
					"name": "New Request",
					"request": {
						"method": "GET",
						"header": []
					},
					"response": []
				}
			]
		}
	]
}